…
+   , "dplyr"
+   , "urca"
+   # , "prophet"
+   , "ggplot2"
+ )
> # Get File ####
> fileToLoad <- file.choose(new = TRUE)
> arrivals <- read.csv(fileToLoad)
> View(arrivals)
> arrivals$Time <- mdy(arrivals$Time)
> # Coerce to tsibble ----
> df_tsbl <- arrivals %>%
+   as_tsibble(index = Time)
> df_tsbl
# A tsibble: 6,908 x 2 [1D]
   Time       DSCH_COUNT
   <date>          <int>
 1 2001-01-01         22
 2 2001-01-02         30
 3 2001-01-03         43
 4 2001-01-04         30
 5 2001-01-05         38
 6 2001-01-06         22
 7 2001-01-07         29
 8 2001-01-08         37
 9 2001-01-09         33
10 2001-01-10         52
# ... with 6,898 more rows
> interval(df_tsbl)
1D
> count_gaps(df_tsbl)
# A tibble: 0 x 3
# ... with 3 variables: .from <date>, .to <date>, .n <int>
> # Make Monthly ----
> df_monthly_tsbl <- df_tsbl %>%
+   index_by(Year_Month = ~ yearmonth(.)) %>%
+   summarise(Count = sum(DSCH_COUNT, na.rm = TRUE))
> df_monthly_tsbl           
# A tsibble: 227 x 2 [1M]
   Year_Month Count
        <mth> <int>
 1   2001 Jan  1067
 2   2001 Feb   919
 3   2001 Mar  1024
 4   2001 Apr  1010
 5   2001 May  1056
 6   2001 Jun   995
 7   2001 Jul  1002
 8   2001 Aug  1076
 9   2001 Sep   982
10   2001 Oct   971
# ... with 217 more rows
…
