…
(By the same token, would you support `as_rray.table()`?)

``` r
library(tidyverse)
library(rray)

titanic_rray <-
  Titanic %>%
  unclass() %>% # FIXME: Should work without
  as_rray()

Titanic %>% # FIXME: Should work similarly with titanic_rray %>% ...
  as_tibble()
#> # A tibble: 32 x 5
#>    Class Sex    Age   Survived     n
#>    <chr> <chr>  <chr> <chr>    <dbl>
#>  1 1st   Male   Child No           0
#>  2 2nd   Male   Child No           0
#>  3 3rd   Male   Child No          35
#>  4 Crew  Male   Child No           0
#>  5 1st   Female Child No           0
#>  6 2nd   Female Child No           0
#>  7 3rd   Female Child No          17
#>  8 Crew  Female Child No           0
#>  9 1st   Male   Adult No         118
#> 10 2nd   Male   Adult No         154
#> # … with 22 more rows
…
