…
Maybe I should ask this other question in another issue but I was also wondering why the decomposition mode is forced with `X11()` (to additive) and not with `SEATS()`? By default X-13ARIMA-SEATS performs an automatic selection of the decomposition mode and the most common decomposition mode for economic time series is multiplicative.
At the moment the column name is given as `V1` if a function is passed, otherwise a named list will rectify this. I'm not sure if it's worth it, but I was thinking it might be nice to have some auto-naming of columns if a named list is not provided. 

So ideally the first function would return the same output as the second.

What do you think? 

``` r
library(brolgar)

world_heights %>%
  features(height_cm,
           min)
#> # A tibble: 153 x 2
#>    country        V1
#>    <chr>       <dbl>
#>  1 Afghanistan  161.
#>  2 Albania      168.
#>  3 Algeria      166.
#>  4 Angola       159.
#>  5 Argentina    167.
#>  6 Armenia      164.
#>  7 Australia    170 
#>  8 Austria      162.
#>  9 Azerbaijan   170.
#> 10 Bahrain      161.
#> # … with 143 more rows

world_heights %>%
  features(height_cm,
           list(min = min))
#> # A tibble: 153 x 2
#>    country       min
#>    <chr>       <dbl>
#>  1 Afghanistan  161.
#>  2 Albania      168.
#>  3 Algeria      166.
#>  4 Angola       159.
#>  5 Argentina    167.
#>  6 Armenia      164.
#>  7 Australia    170 
#>  8 Austria      162.
#>  9 Azerbaijan   170.
#> 10 Bahrain      161.
#> # … with 143 more rows
```
…
