…
@vincentarelbundock do you think this is something worth investing time in?
Any interest in wrapping this in?

```
closest_field = function(x){
  if(length(x) > length(unique(x))) stop('x must be a vector of unique values')
  similarity = sapply(codelist, function(field){ 100 * sum(x %in% field) / length(x) })
  similarity = data.frame(field = names(similarity), similarity = as.vector(similarity), stringsAsFactors=FALSE)
  similarity = similarity[order(similarity$similarity, decreasing = TRUE),]
  if(suppressWarnings(suppressMessages(!require(tibble)))) return(similarity)
  return(as_tibble(similarity))
}

closest_field(c('CM','AL','PA','MK','HA','CO','ZI','KU','TH','FI'))
#> # A tibble: 730 x 2
#>    field         similarity
#>    <chr>              <dbl>
#>  1 fips                 100
#>  2 ecb                   70
#>  3 eurostat              70
#>  4 genc2c                70
#>  5 iso2c                 70
#>  6 wb_api2c              70
#>  7 cldr.name.bem         70
#>  8 cldr.name.bo          70
#>  9 cldr.name.cu          70
#> 10 cldr.name.gv          70
#> # … with 720 more rows

closest_field(c('Ivory Coast','Guinea','Iran','Russia','North Korea'))
#> # A tibble: 730 x 2
#>    field              similarity
#>    <chr>                   <dbl>
#>  1 cow.name                  100
#>  2 vdem.name                 100
#>  3 cldr.variant.en           100
#>  4 cldr.variant.en_gb        100
#>  5 country.name.en            80
#>  6 eurostat.name              80
#>  7 p4.name                    80
#>  8 wvs.name                   80
#>  9 cldr.name.en               80
#> 10 cldr.name.en_gb            80
#> # … with 720 more rows
```
…
